typeId / subtypeId	MaxPowerOutput	RequiredPowerInput	MaxStoredPower
Condensator	180.0	180.0	4.0
CondensatorT02	298.0	298.0	6.6
CondensatorT03	492.2	492.2	10.9
CondensatorT04	813.9	813.9	18.1
CondensatorT05	1345.6	1345.6	29.9
CondensatorT06	2225.1	2225.1	49.4
CondensatorT07	3684.5	3684.5	81.9
CondensatorT08	6108.1	6108.1	135.7
CondensatorT09	10256.3	10256.3	227.9
CondensatorT10	16087.8	16087.8	357.5
CondensatorT11	26200.2	26200.2	582.2
CondensatorT12	44384.4	44384.4	986.3
CondensatorSmall	36.0	36.0	0.8
CondensatorSmallT02	59.6	59.6	1.3
CondensatorSmallT03	98.4	98.4	2.2
CondensatorSmallT04	163.1	163.1	3.6
CondensatorSmallT05	269.8	269.8	6.0
CondensatorSmallT06	445.3	445.3	9.9
CondensatorSmallT07	737.4	737.4	16.4
CondensatorSmallT08	1222.0	1222.0	27.2
CondensatorSmallT09	2030.2	2030.2	45.1
CondensatorSmallT10	3118.6	3118.6	69.3
CondensatorSmallT11	5217.4	5217.4	115.9
CondensatorSmallT12	8760.9	8760.9	194.7