typeId / subtypeId	MaxPowerOutput	RequiredPowerInput	MaxStoredPower	Mass
LargeBaseBattery	1152.0	3456.0	144.0	0
LargeBaseBatteryT02	1907.3	5722.0	260.1	0
LargeBaseBatteryT03	3150.7	9452.1	468.7	0
LargeBaseBatteryT04	5206.6	15619.8	844.9	0
LargeBaseBatteryT05	8968.3	26904.9	1587.7	0
LargeBaseBatteryT06	14586.6	43759.9	2817.1	0
LargeBaseBatteryT07	23663.0	70989.0	4985.5	0
LargeBaseBatteryT08	40045.8	120137.3	9204.2	0
LargeBaseBatteryT09	65655.4	196966.3	16462.2	0
LargeBaseBatteryT10	105871.5	317614.6	28959.2	0
LargeBaseBatteryT11	177717.2	533151.6	53030.4	0
LargeBaseBatteryT12	297847.3	893541.9	96956.7	0
SmallBaseBattery	140.3	420.9	35.1	0
SmallBaseBatteryT02	232.0	695.9	63.3	0
SmallBaseBatteryT03	383.6	1150.8	114.1	0
SmallBaseBatteryT04	633.0	1899.1	205.5	0
SmallBaseBatteryT05	1047.0	3140.9	370.7	0
SmallBaseBatteryT06	1731.3	5194.0	668.7	0
SmallBaseBatteryT07	2866.4	8599.1	1207.8	0
SmallBaseBatteryT08	4754.3	14262.8	2185.5	0
SmallBaseBatteryT09	7900.9	23702.7	3962.1	0
SmallBaseBatteryT10	12809.6	38428.8	7007.6	0
SmallBaseBatteryT11	22121.3	66364.0	13201.9	0
SmallBaseBatteryT12	38010.0	114030.0	24746.4	0